E:\Workspace\AEMTestSushant\bundle\src\main\java\com\aem\service\impl\TagContentImpl.java
E:\Workspace\AEMTestSushant\bundle\src\main\java\com\aem\service\TagContent.java
E:\Workspace\AEMTestSushant\bundle\src\main\java\com\aem\model\TagListModel.java
