-------------------------------------------------------------------------------
Test set: com.aem.service.impl.TagContentImplTest
-------------------------------------------------------------------------------
Tests run: 1, Failures: 0, Errors: 0, Skipped: 0, Time elapsed: 0.258 sec
